An Introduction to Computing and Data for Scientists - 5 Visualizing Data
…
5.3 One numerical variable: histograms

How can we visualize a single column of data by itself? And why would we want to do this?

Let’s use a dataset that is included in the tidyverse R package which contains information about different characters from the Star Wars franchise.

You can load the dataset in RStudio by loading the tidyverse package (which you installed in Section 3.10.1) by running library(tidyverse). The dataset will then be available to you as a dataframe stored in an R variable called starwars.

Here is an example of the data stored in the starwars dataframe: ::: {.cell hash=‘05_visualization_chapter_cache/html/unnamed-chunk-5_069e7b90eee93c4d5945aac111f22bcd’}

starwars

# A tibble: 87 × 14
   name        height  mass hair_…¹ skin_…² eye_c…³ birth…⁴ sex   gender homew…⁵
   <chr>        <int> <dbl> <chr>   <chr>   <chr>     <dbl> <chr> <chr>  <chr>  
 1 Luke Skywa…    172    77 blond   fair    blue       19   male  mascu… Tatooi…
 2 C-3PO          167    75 <NA>    gold    yellow    112   none  mascu… Tatooi…
 3 R2-D2           96    32 <NA>    white,… red        33   none  mascu… Naboo  
 4 Darth Vader    202   136 none    white   yellow     41.9 male  mascu… Tatooi…
 5 Leia Organa    150    49 brown   light   brown      19   fema… femin… Aldera…
 6 Owen Lars      178   120 brown,… light   blue       52   male  mascu… Tatooi…
 7 Beru White…    165    75 brown   light   blue       47   fema… femin… Tatooi…
 8 R5-D4           97    32 <NA>    white,… red        NA   none  mascu… Tatooi…
 9 Biggs Dark…    183    84 black   light   brown      24   male  mascu… Tatooi…
10 Obi-Wan Ke…    182    77 auburn… fair    blue-g…    57   male  mascu… Stewjon
# … with 77 more rows, 4 more variables: species <chr>, films <list>,
#   vehicles <list>, starships <list>, and abbreviated variable names
#   ¹​hair_color, ²​skin_color, ³​eye_color, ⁴​birth_year, ⁵​homeworld
…
